^C:\USERS\HET\GOOGLE ДИСК\PROG\ООП ЛАБ\ЛАБ_4\ЛАБ_3 _2\DEBUG\EXPRPARSER.OBJ|C:\USERS\HET\GOOGLE ДИСК\PROG\ООП ЛАБ\ЛАБ_4\ЛАБ_3 _2\DEBUG\EXPRPARSERMAIN.OBJ|C:\USERS\HET\GOOGLE ДИСК\PROG\ООП ЛАБ\ЛАБ_4\ЛАБ_3 _2\DEBUG\EXPRTREE.OBJ|C:\USERS\HET\GOOGLE ДИСК\PROG\ООП ЛАБ\ЛАБ_4\ЛАБ_3 _2\DEBUG\TREEBUILDER.OBJ|C:\USERS\HET\GOOGLE ДИСК\PROG\ООП ЛАБ\ЛАБ_4\ЛАБ_3 _2\DEBUG\VISITOR.OBJ
C:\USERS\HET\GOOGLE Диск\PROG\ООП ЛАб\лаб_4\DEBUG\лаб_3_2.ILK
C:\USERS\HET\GOOGLE Диск\PROG\ООП ЛАб\лаб_4\DEBUG\лаб_3_2.EXE
C:\USERS\HET\GOOGLE ДИСК\PROG\ООП ЛАБ\ЛАБ_4\DEBUG\ЛАБ_3_2.PDB
